waveforms/divider.vcd
$date
	Tue Apr 29 12:58:43 2025
$end
$version
	Icarus Verilog
$end
$timescale
	1ns
$end
$scope module divider $end
$var wire 1 ! clk $end
$var wire 32 " dividend [31:0] $end
$var wire 32 # divisor [31:0] $end
$var wire 1 $ rst $end
$var wire 1 % start $end
$var wire 32 & remainder [31:0] $end
$var wire 32 ' quotient [31:0] $end
$var parameter 32 ( DW $end
$var reg 6 ) count [5:0] $end
$var reg 1 * done $end
$var reg 6 + next_count [5:0] $end
$var reg 33 , next_quo [32:0] $end
$var reg 33 - next_rem [32:0] $end
$var reg 2 . next_state [1:0] $end
$var reg 33 / quo_reg [32:0] $end
$var reg 33 0 rem_reg [32:0] $end
$var reg 2 1 state [1:0] $end
$var reg 33 2 sub_result [32:0] $end
$upscope $end
$enddefinitions $end
$comment Show the parameter values. $end
$dumpall
b100000 (
$end
#0
$dumpvars
bx 2
bx 1
bx 0
bx /
bx .
bx -
bx ,
bx +
0*
bx )
bx '
bx &
z%
z$
bz #
bz "
1!
$end
#5
0!
#10
b0 &
b0 '
b0 +
b0 -
b0 ,
b0 .
b0 )
b0 0
b0 /
b0 1
1!
b0 #
b0 "
0%
0$
#15
0!
#20
1!
1$
#25
0!
#30
b1000000000000000000000000000000 '
b111111111111111100110110110000100 2
b100000 )
b1000000000000000000000000000000 /
b1 1
b1 .
b11111 +
b10000000000000000000000000000000 ,
1!
1%
b11001001001111100 #
b1000000000000000000000000000000 "
#35
0!
#40
b111111111111111100110110110000101 2
b1 -
b10000000000000000000000000000000 '
b11111 )
b10000000000000000000000000000000 /
b11110 +
b100000000000000000000000000000000 ,
1!
0%
#45
0!
#50
b1 &
b11101 +
b111111111111111100110110110000110 2
b0 ,
b10 -
b0 '
b11110 )
b1 0
b100000000000000000000000000000000 /
1!
#55
0!
#60
b10 &
b11100 +
b111111111111111100110110110001000 2
b100 -
b11101 )
b10 0
b0 /
1!
#65
0!
#70
b11011 +
b111111111111111100110110110001100 2
b1000 -
b100 &
b11100 )
b100 0
1!
#75
0!
#80
b11010 +
b111111111111111100110110110010100 2
b10000 -
b1000 &
b11011 )
b1000 0
1!
#85
0!
#90
b11001 +
b111111111111111100110110110100100 2
b100000 -
b10000 &
b11010 )
b10000 0
1!
#95
0!
#100
b11000 +
b111111111111111100110110111000100 2
b1000000 -
b100000 &
b11001 )
b100000 0
1!
#105
0!
#110
b10111 +
b111111111111111100110111000000100 2
b10000000 -
b1000000 &
b11000 )
b1000000 0
1!
#115
0!
#120
b10110 +
b111111111111111100110111010000100 2
b100000000 -
b10000000 &
b10111 )
b10000000 0
1!
#125
0!
#130
b10101 +
b111111111111111100110111110000100 2
b1000000000 -
b100000000 &
b10110 )
b100000000 0
1!
#135
0!
#140
b10100 +
b111111111111111100111000110000100 2
b10000000000 -
b1000000000 &
b10101 )
b1000000000 0
1!
#145
0!
#150
b10011 +
b111111111111111100111010110000100 2
b100000000000 -
b10000000000 &
b10100 )
b10000000000 0
1!
#155
0!
#160
b10010 +
b111111111111111100111110110000100 2
b1000000000000 -
b100000000000 &
b10011 )
b100000000000 0
1!
#165
0!
#170
b10001 +
b111111111111111101000110110000100 2
b10000000000000 -
b1000000000000 &
b10010 )
b1000000000000 0
1!
#175
0!
#180
b10000 +
b111111111111111101010110110000100 2
b100000000000000 -
b10000000000000 &
b10001 )
b10000000000000 0
1!
#185
0!
#190
b1111 +
b111111111111111101110110110000100 2
b1000000000000000 -
b100000000000000 &
b10000 )
b100000000000000 0
1!
#195
0!
#200
b1110 +
b111111111111111110110110110000100 2
b10000000000000000 -
b1000000000000000 &
b1111 )
b1000000000000000 0
1!
#205
0!
#210
b1101 +
b1 ,
b110110110000100 2
b110110110000100 -
b10000000000000000 &
b1110 )
b10000000000000000 0
1!
#215
0!
#220
b110110110000100 &
b1100 +
b111111111111111110100100010001100 2
b10 ,
b1101101100001000 -
b1 '
b1101 )
b110110110000100 0
b1 /
1!
#225
0!
#230
b1101101100001000 &
b1011 +
b10001110010100 2
b101 ,
b10001110010100 -
b10 '
b1100 )
b1101101100001000 0
b10 /
1!
#235
0!
#240
b10001110010100 &
b1010 +
b111111111111111101011010010101100 2
b1010 ,
b100011100101000 -
b101 '
b1011 )
b10001110010100 0
b101 /
1!
#245
0!
#250
b100011100101000 &
b1001 +
b111111111111111101111101111010100 2
b10100 ,
b1000111001010000 -
b1010 '
b1010 )
b100011100101000 0
b1010 /
1!
#255
0!
#260
b1000111001010000 &
b1000 +
b111111111111111111000101000100100 2
b101000 ,
b10001110010100000 -
b10100 '
b1001 )
b1000111001010000 0
b10100 /
1!
#265
0!
#270
b10001110010100000 &
b111 +
b1010011011000100 2
b1010001 ,
b1010011011000100 -
b101000 '
b1000 )
b10001110010100000 0
b101000 /
1!
#275
0!
#280
b1010011011000100 &
b110 +
b111111111111111111011101100001100 2
b10100010 ,
b10100110110001000 -
b1010001 '
b111 )
b1010011011000100 0
b1010001 /
1!
#285
0!
#290
b10100110110001000 &
b101 +
b10000100010010100 2
b101000101 ,
b10000100010010100 -
b10100010 '
b110 )
b10100110110001000 0
b10100010 /
1!
#295
0!
#300
b10000100010010100 &
b100 +
b111111010101100 2
b1010001011 ,
b111111010101100 -
b101000101 '
b101 )
b10000100010010100 0
b101000101 /
1!
#305
0!
#310
b111111010101100 &
b11 +
b111111111111111110110101011011100 2
b10100010110 ,
b1111110101011000 -
b1010001011 '
b100 )
b111111010101100 0
b1010001011 /
1!
#315
0!
#320
b1111110101011000 &
b10 +
b110100000110100 2
b101000101101 ,
b110100000110100 -
b10100010110 '
b11 )
b1111110101011000 0
b10100010110 /
1!
#325
0!
#330
b110100000110100 &
b1 +
b111111111111111110011110111101100 2
b1010001011010 ,
b1101000001101000 -
b101000101101 '
b10 )
b110100000110100 0
b101000101101 /
1!
#335
0!
#340
b1101000001101000 &
b10 .
b0 +
b111001010100 2
b10100010110101 ,
b111001010100 -
b1010001011010 '
b1 )
b1101000001101000 0
b1010001011010 /
1!
#345
0!
#350
b111001010100 &
b10100010110101 '
1*
b0 )
b111001010100 0
b10100010110101 /
b10 1
1!
