waveforms/max.vcd
$date
	Mon Apr 21 15:33:02 2025
$end
$version
	Icarus Verilog
$end
$timescale
	1ns
$end
$scope module max $end
$var wire 1 ! clk $end
$var wire 32 " din [31:0] $end
$var wire 1 # din_valid $end
$var wire 1 $ fifo_rd_en $end
$var wire 32 % max_out [31:0] $end
$var wire 1 & rst $end
$var wire 1 ' start $end
$var wire 1 ( fifo_full $end
$var wire 1 ) fifo_empty $end
$var wire 32 * fifo_data_out [31:0] $end
$var parameter 32 + DW $end
$var parameter 32 , N $end
$var reg 2 - current_state [1:0] $end
$var reg 1 . done $end
$var reg 1 / fifo_wr_en $end
$var reg 5 0 load_counter [4:0] $end
$var reg 2 1 next_state [1:0] $end
$var reg 32 2 q_max [31:0] $end
$var reg 1 3 rd_pre $end
$scope module fifo_inst $end
$var wire 1 ! clk $end
$var wire 32 4 data_in [31:0] $end
$var wire 1 $ read_en $end
$var wire 1 & rst_n $end
$var wire 1 # write_en $end
$var wire 1 ( full $end
$var wire 1 ) empty $end
$var parameter 32 5 DATA_WIDTH $end
$var parameter 32 6 DEPTH $end
$var parameter 32 7 PTR_W $end
$var reg 32 8 data_out [31:0] $end
$var reg 5 9 read_ptr [4:0] $end
$var reg 5 : write_ptr [4:0] $end
$upscope $end
$upscope $end
$enddefinitions $end
$comment Show the parameter values. $end
$dumpall
b101 7
b100000 6
b100000 5
b100000 ,
b100000 +
$end
#0
$dumpvars
b0 :
b0 9
bx 8
bz 4
03
b0 2
b0 1
bx 0
0/
0.
b0 -
bx *
1)
0(
z'
1&
b0 %
0$
z#
bz "
1!
$end
#5
0!
#10
1!
#15
0!
#20
1!
0&
#25
0!
#30
0'
0#
1!
#35
0!
#40
b1 1
1'
1!
#45
0!
#50
1#
b1 "
b1 4
0'
b10 1
b1 -
1!
#55
0!
#60
b10 "
b10 4
1$
13
0)
b1 :
b10 -
1!
#65
0!
#70
b11 "
b11 4
b1 %
b1 2
1$
13
b1 9
b1 *
b1 8
b10 :
1!
#75
0!
#80
b100 "
b100 4
b10 %
b10 2
1$
13
b10 9
b10 *
b10 8
b11 :
1!
#85
0!
#90
b101 "
b101 4
b11 %
b11 2
1$
13
b11 9
b11 *
b11 8
b100 :
1!
#95
0!
#100
b110 "
b110 4
b100 %
b100 2
1$
13
b100 9
b100 *
b100 8
b101 :
1!
#105
0!
#110
b111 "
b111 4
b101 %
b101 2
1$
13
b101 9
b101 *
b101 8
b110 :
1!
#115
0!
#120
b1000 "
b1000 4
b110 %
b110 2
1$
13
b110 9
b110 *
b110 8
b111 :
1!
#125
0!
#130
b1001 "
b1001 4
b111 %
b111 2
1$
13
b111 9
b111 *
b111 8
b1000 :
1!
#135
0!
#140
b1010 "
b1010 4
b1000 %
b1000 2
1$
13
b1000 9
b1000 *
b1000 8
b1001 :
1!
#145
0!
#150
b1011 "
b1011 4
b1001 %
b1001 2
1$
13
b1001 9
b1001 *
b1001 8
b1010 :
1!
#155
0!
#160
b1100 "
b1100 4
b1010 %
b1010 2
1$
13
b1010 9
b1010 *
b1010 8
b1011 :
1!
#165
0!
#170
b1101 "
b1101 4
b1011 %
b1011 2
1$
13
b1011 9
b1011 *
b1011 8
b1100 :
1!
#175
0!
#180
b1110 "
b1110 4
b1100 %
b1100 2
1$
13
b1100 9
b1100 *
b1100 8
b1101 :
1!
#185
0!
#190
b1111 "
b1111 4
b1101 %
b1101 2
1$
13
b1101 9
b1101 *
b1101 8
b1110 :
1!
#195
0!
#200
b10000 "
b10000 4
b1110 %
b1110 2
1$
13
b1110 9
b1110 *
b1110 8
b1111 :
1!
#205
0!
#210
b1111 "
b1111 4
b1111 %
b1111 2
1$
13
b1111 9
b1111 *
b1111 8
b10000 :
1!
#215
0!
#220
b1110 "
b1110 4
b10000 %
b10000 2
1$
13
b10000 9
b10000 *
b10000 8
b10001 :
1!
#225
0!
#230
b1101 "
b1101 4
1$
13
b10001 9
b1111 *
b1111 8
b10010 :
1!
#235
0!
#240
b1100 "
b1100 4
1$
13
b10010 9
b1110 *
b1110 8
b10011 :
1!
#245
0!
#250
b1011 "
b1011 4
1$
13
b10011 9
b1101 *
b1101 8
b10100 :
1!
#255
0!
#260
b1010 "
b1010 4
1$
13
b10100 9
b1100 *
b1100 8
b10101 :
1!
#265
0!
#270
b1001 "
b1001 4
1$
13
b10101 9
b1011 *
b1011 8
b10110 :
1!
#275
0!
#280
b1000 "
b1000 4
1$
13
b10110 9
b1010 *
b1010 8
b10111 :
1!
#285
0!
#290
b111 "
b111 4
1$
13
b10111 9
b1001 *
b1001 8
b11000 :
1!
#295
0!
#300
b110 "
b110 4
1$
13
b11000 9
b1000 *
b1000 8
b11001 :
1!
#305
0!
#310
b101 "
b101 4
1$
13
b11001 9
b111 *
b111 8
b11010 :
1!
#315
0!
#320
b100 "
b100 4
1$
13
b11010 9
b110 *
b110 8
b11011 :
1!
#325
0!
#330
b11 "
b11 4
1$
13
b11011 9
b101 *
b101 8
b11100 :
1!
#335
0!
#340
b10 "
b10 4
1$
13
b11100 9
b100 *
b100 8
b11101 :
1!
#345
0!
#350
b1 "
b1 4
1$
13
b11101 9
b11 *
b11 8
b11110 :
1!
#355
0!
#360
0#
1$
13
b11110 9
b10 *
b10 8
b11111 :
1!
#365
0!
#370
b11 1
0$
03
1)
b11111 9
b1 *
b1 8
1!
#375
0!
#380
b0 1
1.
b11 -
1!
#385
0!
#390
0.
b0 -
1!
