waveforms/softmax.vcd
$date
	Thu May  1 17:00:23 2025
$end
$version
	Icarus Verilog
$end
$timescale
	1ps
$end
$scope module softmax $end
$var wire 1 ! clk $end
$var wire 32 " dividend [31:0] $end
$var wire 32 # divisor [31:0] $end
$var wire 1 $ enable $end
$var wire 1 % in_valid $end
$var wire 1 & rst $end
$var wire 32 ' x_in [31:0] $end
$var wire 32 ( remainder [31:0] $end
$var wire 32 ) quotient [31:0] $end
$var wire 64 * qexp_64 [63:0] $end
$var wire 32 + qexp_32 [31:0] $end
$var wire 17 , q_req [16:0] $end
$var wire 1 - fifo_b_full $end
$var wire 1 . fifo_b_empty $end
$var wire 32 / fifo_b_data_out [31:0] $end
$var wire 1 0 fifo_a_full $end
$var wire 1 1 fifo_a_empty $end
$var wire 32 2 fifo_a_data_out [31:0] $end
$var wire 1 3 divider_start $end
$var wire 1 4 divider_done $end
$var parameter 32 5 DW $end
$var parameter 32 6 EXP_FP_BITS $end
$var parameter 32 7 MAX_BITS $end
$var parameter 32 8 N $end
$var parameter 32 9 OUT_BITS $end
$var parameter 32 : Q_REQ_W $end
$var parameter 32 ; SHIFT $end
$var parameter 32 < SREQ $end
$var reg 1 = accumulate_en $end
$var reg 32 > fifo_a_data_in [31:0] $end
$var reg 1 ? fifo_a_rd_en $end
$var reg 1 @ fifo_a_wr_en $end
$var reg 32 A fifo_b_data_in [31:0] $end
$var reg 1 B fifo_b_rd_en $end
$var reg 1 C fifo_b_wr_en $end
$var reg 6 D idx [5:0] $end
$var reg 1 E max_done $end
$var reg 5 F out_idx [4:0] $end
$var reg 1 G out_valid $end
$var reg 32 H q_sum [31:0] $end
$var reg 1 I sum_done $end
$var reg 5 J sum_idx [4:0] $end
$var reg 32 K x_tilde [31:0] $end
$var reg 32 L xmax [31:0] $end
$var reg 32 M y_out [31:0] $end
$scope module div_inst $end
$var wire 1 ! clk $end
$var wire 32 N dividend [31:0] $end
$var wire 32 O divisor [31:0] $end
$var wire 1 & rst $end
$var wire 1 3 start $end
$var wire 32 P remainder [31:0] $end
$var wire 32 Q quotient [31:0] $end
$var parameter 32 R DW $end
$var reg 6 S count [5:0] $end
$var reg 1 4 done $end
$var reg 6 T next_count [5:0] $end
$var reg 33 U next_quo [32:0] $end
$var reg 33 V next_rem [32:0] $end
$var reg 2 W next_state [1:0] $end
$var reg 33 X quo_reg [32:0] $end
$var reg 33 Y rem_reg [32:0] $end
$var reg 2 Z state [1:0] $end
$var reg 33 [ sub_result [32:0] $end
$upscope $end
$scope module exp_inst $end
$var wire 1 ! clk $end
$var wire 32 \ q [31:0] $end
$var wire 1 & rst $end
$var wire 32 ] z [31:0] $end
$var wire 64 ^ t2 [63:0] $end
$var wire 32 _ t [31:0] $end
$var wire 32 ` q_out [31:0] $end
$var wire 96 a q_L [95:0] $end
$var wire 32 b p [31:0] $end
$var parameter 32 c A $end
$var parameter 32 d B $end
$var parameter 32 e C $end
$var parameter 32 f DW $end
$var parameter 32 g LN2 $end
$upscope $end
$scope module fifo_a $end
$var wire 1 ! clk $end
$var wire 32 h data_in [31:0] $end
$var wire 1 ? rd_en $end
$var wire 1 & rst $end
$var wire 1 @ wr_en $end
$var wire 1 0 full $end
$var wire 1 1 empty $end
$var parameter 32 i DW $end
$var parameter 32 j N $end
$var reg 6 k counter [5:0] $end
$var reg 32 l data_out [31:0] $end
$var reg 5 m read_ptr [4:0] $end
$var reg 5 n write_ptr [4:0] $end
$upscope $end
$scope module fifo_b $end
$var wire 1 ! clk $end
$var wire 32 o data_in [31:0] $end
$var wire 1 B rd_en $end
$var wire 1 & rst $end
$var wire 1 C wr_en $end
$var wire 1 - full $end
$var wire 1 . empty $end
$var parameter 32 p DW $end
$var parameter 32 q N $end
$var reg 6 r counter [5:0] $end
$var reg 32 s data_out [31:0] $end
$var reg 5 t read_ptr [4:0] $end
$var reg 5 u write_ptr [4:0] $end
$upscope $end
$upscope $end
$enddefinitions $end
$comment Show the parameter values. $end
$dumpall
b100000 q
b100000 p
b100000 j
b100000 i
b10110001 g
b100000 f
b1011000 e
b101011010 d
b1011100 c
b100000 R
b111111111111111 <
b10110 ;
b10000 :
b1000 9
b100000 8
b11110 7
b1000 6
b100000 5
$end
#0
$dumpvars
bx u
bx t
bx s
bx r
bx o
bx n
bx m
bx l
bx k
bx h
bx b
bx a
bx `
bx _
bx ^
bx ]
bx \
bx [
bx Z
bx Y
bx X
bx W
bx V
bx U
bx T
bx S
bx Q
bx P
bx O
b1000000000000000000000000000000 N
bx M
bx L
bx K
b0 J
0I
bx H
xG
bx F
xE
bx D
xC
xB
bx A
x@
x?
bx >
x=
04
03
bx 2
x1
x0
bx /
x.
x-
bx ,
bx +
bx *
bx )
bx (
bz '
0&
z%
0$
bx #
b1000000000000000000000000000000 "
1!
$end
#5000
0!
#10000
0B
b0xxxxxxxxxxxxxxxxx A
b0xxxxxxxxxxxxxxxxx o
0C
0?
0@
1!
1$
#15000
0!
#20000
b0 (
b0 P
b0 )
b0 Q
b0 T
b0 V
b0 U
b0 W
11
00
b0 k
b0 m
b0 n
1.
0-
b0 r
b0 t
b0 u
b0 S
b0 Y
b0 X
b0 Z
0E
b0 D
b0 L
0=
b0 #
b0 O
b0 H
b0 F
0G
1!
1&
#25000
0!
#30000
1!
#35000
0!
#40000
b11111111111111111111111100111000 '
1%
1!
0&
#45000
0!
#50000
b11111111111111111111111101101010 '
b11111111111111111111111100111000 >
b11111111111111111111111100111000 h
1@
b1 D
1!
#55000
0!
#60000
b11111111111111111111111110011100 '
01
b1 k
b1 n
b11111111111111111111111101101010 >
b11111111111111111111111101101010 h
b10 D
1!
#65000
0!
#70000
b11111111111111111111111111001110 '
b11111111111111111111111110011100 >
b11111111111111111111111110011100 h
b11 D
b10 k
b10 n
1!
#75000
0!
#80000
b0 '
b11 k
b11 n
b11111111111111111111111111001110 >
b11111111111111111111111111001110 h
b100 D
1!
#85000
0!
#90000
b110010 '
b0 >
b0 h
b101 D
b100 k
b100 n
1!
#95000
0!
#100000
b1100100 '
b101 k
b101 n
b110010 >
b110010 h
b110 D
b110010 L
1!
#105000
0!
#110000
b10010110 '
b1100100 >
b1100100 h
b111 D
b1100100 L
b110 k
b110 n
1!
#115000
0!
#120000
b11001000 '
b111 k
b111 n
b10010110 >
b10010110 h
b1000 D
b10010110 L
1!
#125000
0!
#130000
b11111111111111111111111101001100 '
b11001000 >
b11001000 h
b1001 D
b11001000 L
b1000 k
b1000 n
1!
#135000
0!
#140000
b11111111111111111111111110001000 '
b1001 k
b1001 n
b11111111111111111111111101001100 >
b11111111111111111111111101001100 h
b1010 D
1!
#145000
0!
#150000
b11111111111111111111111110111010 '
b11111111111111111111111110001000 >
b11111111111111111111111110001000 h
b1011 D
b1010 k
b1010 n
1!
#155000
0!
#160000
b11111111111111111111111111101100 '
b1011 k
b1011 n
b11111111111111111111111110111010 >
b11111111111111111111111110111010 h
b1100 D
1!
#165000
0!
#170000
b11110 '
b11111111111111111111111111101100 >
b11111111111111111111111111101100 h
b1101 D
b1100 k
b1100 n
1!
#175000
0!
#180000
b1010000 '
b1101 k
b1101 n
b11110 >
b11110 h
b1110 D
1!
#185000
0!
#190000
b10000010 '
b1010000 >
b1010000 h
b1111 D
b1110 k
b1110 n
1!
#195000
0!
#200000
b10110100 '
b1111 k
b1111 n
b10000010 >
b10000010 h
b10000 D
1!
#205000
0!
#210000
b11111111111111111111111101000010 '
b10110100 >
b10110100 h
b10001 D
b10000 k
b10000 n
1!
#215000
0!
#220000
b11111111111111111111111101110100 '
b10001 k
b10001 n
b11111111111111111111111101000010 >
b11111111111111111111111101000010 h
b10010 D
1!
#225000
0!
#230000
b11111111111111111111111110100110 '
b11111111111111111111111101110100 >
b11111111111111111111111101110100 h
b10011 D
b10010 k
b10010 n
1!
#235000
0!
#240000
b11111111111111111111111111011000 '
b10011 k
b10011 n
b11111111111111111111111110100110 >
b11111111111111111111111110100110 h
b10100 D
1!
#245000
0!
#250000
b1010 '
b11111111111111111111111111011000 >
b11111111111111111111111111011000 h
b10101 D
b10100 k
b10100 n
1!
#255000
0!
#260000
b111100 '
b10101 k
b10101 n
b1010 >
b1010 h
b10110 D
1!
#265000
0!
#270000
b1101110 '
b111100 >
b111100 h
b10111 D
b10110 k
b10110 n
1!
#275000
0!
#280000
b10100000 '
b10111 k
b10111 n
b1101110 >
b1101110 h
b11000 D
1!
#285000
0!
#290000
b11111111111111111111111101010110 '
b10100000 >
b10100000 h
b11001 D
b11000 k
b11000 n
1!
#295000
0!
#300000
b11111111111111111111111110010010 '
b11001 k
b11001 n
b11111111111111111111111101010110 >
b11111111111111111111111101010110 h
b11010 D
1!
#305000
0!
#310000
b11111111111111111111111111000100 '
b11111111111111111111111110010010 >
b11111111111111111111111110010010 h
b11011 D
b11010 k
b11010 n
1!
#315000
0!
#320000
b11111111111111111111111111110110 '
b11011 k
b11011 n
b11111111111111111111111111000100 >
b11111111111111111111111111000100 h
b11100 D
1!
#325000
0!
#330000
b101000 '
b11111111111111111111111111110110 >
b11111111111111111111111111110110 h
b11101 D
b11100 k
b11100 n
1!
#335000
0!
#340000
b1011010 '
b11101 k
b11101 n
b101000 >
b101000 h
b11110 D
1!
#345000
0!
#350000
b10001100 '
b1011010 >
b1011010 h
b11111 D
b11110 k
b11110 n
1!
#355000
0!
#360000
0%
b11111 k
b11111 n
b10001100 >
b10001100 h
b100000 D
1!
#365000
0!
#370000
0@
1E
10
b100000 k
b0 n
1!
#375000
0!
#380000
1?
1!
#385000
0!
#390000
00
b11111 k
b1 m
b11111111111111111111111100111000 2
b11111111111111111111111100111000 l
1!
#395000
0!
#400000
b1101001111111 ,
b110100111111111001011 *
b110101 +
b110101 `
b11010110 a
b11110 k
b10 m
b11111111111111111111111101101010 2
b11111111111111111111111101101010 l
b10101111110010000 ^
b100101100 _
b11111111111111111111111111010010 b
b10 ]
b11111111111111111111111001110000 K
b11111111111111111111111001110000 \
1=
1!
#405000
0!
#410000
b10000001111111 ,
b1000000111111110111111 *
b1000001 +
b1000001 `
b10000010 a
b1 J
b1101001111111 #
b1101001111111 O
b1101001111111 H
b1101001111111 A
b1101001111111 o
1C
b1 ]
b111010011101001 ^
b10101101 _
b11111111111111111111111101010011 b
b11111111111111111111111010100010 K
b11111111111111111111111010100010 \
b11101 k
b11 m
b11111111111111111111111110011100 2
b11111111111111111111111110011100 l
1!
#415000
0!
#420000
b10011011111111 ,
b1001101111111110110010 *
b1001110 +
b1001110 `
b10011101 a
b11100 k
b100 m
b11111111111111111111111111001110 2
b11111111111111111111111111001110 l
0.
b1 r
b1 u
b1100001001000001 ^
b11011111 _
b11111111111111111111111110000101 b
b11111111111111111111111011010100 K
b11111111111111111111111011010100 \
b10 J
b11101011111110 #
b11101011111110 O
b11101011111110 H
b10000001111111 A
b10000001111111 o
1!
#425000
0!
#430000
b10111111111111 ,
b1011111111111110100000 *
b1100000 +
b1100000 `
b11000000 a
b11 J
b110000111111101 #
b110000111111101 O
b110000111111101 H
b10011011111111 A
b10011011111111 o
b10010001100100001 ^
b100010001 _
b11111111111111111111111110110111 b
b11111111111111111111111100000110 K
b11111111111111111111111100000110 \
b10 r
b10 u
b11011 k
b101 m
b0 2
b0 l
1!
#435000
0!
#440000
b11101001111111 ,
b1110100111111110001011 *
b1110101 +
b1110101 `
b11101010 a
b11010 k
b110 m
b110010 2
b110010 l
b11 r
b11 u
b11001011110001001 ^
b101000011 _
b11111111111111111111111111101001 b
b11111111111111111111111100111000 K
b11111111111111111111111100111000 \
b100 J
b1001000111111100 #
b1001000111111100 O
b1001000111111100 H
b10111111111111 A
b10111111111111 o
1!
#445000
0!
#450000
b100011001111111 ,
b10001100111111101110011 *
b10001101 +
b10001101 `
b10001101 a
b101 J
b1100110001111011 #
b1100110001111011 O
b1100110001111011 H
b11101001111111 A
b11101001111111 o
b0 ]
b1001011000010000 ^
b11000100 _
b11111111111111111111111101101010 b
b11111111111111111111111101101010 K
b11111111111111111111111101101010 \
b100 r
b100 u
b11001 k
b111 m
b1100100 2
b1100100 l
1!
#455000
0!
#460000
b101010111111111 ,
b10101011111111101010100 *
b10101100 +
b10101100 `
b10101100 a
b11000 k
b1000 m
b10010110 2
b10010110 l
b101 r
b101 u
b1110110001100100 ^
b11110110 _
b11111111111111111111111110011100 b
b11111111111111111111111110011100 K
b11111111111111111111111110011100 \
b110 J
b10001001011111010 #
b10001001011111010 O
b10001001011111010 H
b100011001111111 A
b100011001111111 o
1!
#465000
0!
#470000
b110100011111111 ,
b11010001111111100101110 *
b11010010 +
b11010010 `
b11010010 a
b111 J
b10110100011111001 #
b10110100011111001 O
b10110100011111001 H
b101010111111111 A
b101010111111111 o
b10101011001000000 ^
b100101000 _
b11111111111111111111111111001110 b
b11111111111111111111111111001110 K
b11111111111111111111111111001110 \
b110 r
b110 u
b10111 k
b1001 m
b11001000 2
b11001000 l
1!
#475000
0!
#480000
b111111111111111 ,
b11111111111111100000000 *
b100000000 +
b100000000 `
b100000000 a
b10110 k
b1010 m
b11111111111111111111111101001100 2
b11111111111111111111111101001100 l
b111 r
b111 u
b11101001110100100 ^
b101011010 _
b0 b
b0 K
b0 \
b1000 J
b11101000111111000 #
b11101000111111000 O
b11101000111111000 H
b110100011111111 A
b110100011111111 o
1!
#485000
0!
#490000
b1110001111111 ,
b111000111111111000111 *
b111001 +
b111001 `
b11100111 a
b1001 J
b100101000111110111 #
b100101000111110111 O
b100101000111110111 H
b111111111111111 A
b111111111111111 o
b10 ]
b11001000000000000 ^
b101000000 _
b11111111111111111111111111100110 b
b11111111111111111111111010000100 K
b11111111111111111111111010000100 \
b1000 r
b1000 u
b10101 k
b1011 m
b11111111111111111111111110001000 2
b11111111111111111111111110001000 l
1!
#495000
0!
#500000
b10001111111111 ,
b1000111111111110111000 *
b1001000 +
b1001000 `
b10010001 a
b10100 k
b1100 m
b11111111111111111111111110111010 2
b11111111111111111111111110111010 l
b1001 r
b1001 u
b1 ]
b1010000011111001 ^
b11001011 _
b11111111111111111111111101110001 b
b11111111111111111111111011000000 K
b11111111111111111111111011000000 \
b1010 J
b100110111001110110 #
b100110111001110110 O
b100110111001110110 H
b1110001111111 A
b1110001111111 o
1!
#505000
0!
#510000
b10101111111111 ,
b1010111111111110101000 *
b1011000 +
b1011000 `
b10110001 a
b1011 J
b101001001001110101 #
b101001001001110101 O
b101001001001110101 H
b10001111111111 A
b10001111111111 o
b1111101000001001 ^
b11111101 _
b11111111111111111111111110100011 b
b11111111111111111111111011110010 K
b11111111111111111111111011110010 \
b1010 r
b1010 u
b10011 k
b1101 m
b11111111111111111111111111101100 2
b11111111111111111111111111101100 l
1!
#515000
0!
#520000
b11010111111111 ,
b1101011111111110010100 *
b1101100 +
b1101100 `
b11011000 a
b10010 k
b1110 m
b11110 2
b11110 l
b1011 r
b1011 u
b10110011010100001 ^
b100101111 _
b11111111111111111111111111010101 b
b11111111111111111111111100100100 K
b11111111111111111111111100100100 \
b1100 J
b101011111001110100 #
b101011111001110100 O
b101011111001110100 H
b10101111111111 A
b10101111111111 o
1!
#525000
0!
#530000
b100000101111111 ,
b10000010111111101111101 *
b10000011 +
b10000011 `
b10000011 a
b1101 J
b101111010001110011 #
b101111010001110011 O
b101111010001110011 H
b11010111111111 A
b11010111111111 o
b0 ]
b111100100000000 ^
b10110000 _
b11111111111111111111111101010110 b
b11111111111111111111111101010110 K
b11111111111111111111111101010110 \
b1100 r
b1100 u
b10001 k
b1111 m
b1010000 2
b1010000 l
1!
#535000
0!
#540000
b100111101111111 ,
b10011110111111101100001 *
b10011111 +
b10011111 `
b10011111 a
b10000 k
b10000 m
b10000010 2
b10000010 l
b1101 r
b1101 u
b1100011110000100 ^
b11100010 _
b11111111111111111111111110001000 b
b11111111111111111111111110001000 K
b11111111111111111111111110001000 \
b1110 J
b110011010111110010 #
b110011010111110010 O
b110011010111110010 H
b100000101111111 A
b100000101111111 o
1!
#545000
0!
#550000
b110000011111111 ,
b11000001111111100111110 *
b11000010 +
b11000010 `
b11000010 a
b1111 J
b111000010101110001 #
b111000010101110001 O
b111000010101110001 H
b100111101111111 A
b100111101111111 o
b10010100110010000 ^
b100010100 _
b11111111111111111111111110111010 b
b11111111111111111111111110111010 K
b11111111111111111111111110111010 \
b1110 r
b1110 u
b1111 k
b10001 m
b10110100 2
b10110100 l
1!
#555000
0!
#560000
b111011001111111 ,
b11101100111111100010011 *
b11101101 +
b11101101 `
b11101101 a
b1110 k
b10010 m
b11111111111111111111111101000010 2
b11111111111111111111111101000010 l
b1111 r
b1111 u
b11001111100100100 ^
b101000110 _
b11111111111111111111111111101100 b
b11111111111111111111111111101100 K
b11111111111111111111111111101100 \
b10000 J
b111110011001110000 #
b111110011001110000 O
b111110011001110000 H
b110000011111111 A
b110000011111111 o
1!
#565000
0!
#570000
b1101101111111 ,
b110110111111111001001 *
b110111 +
b110111 `
b11011110 a
b10001 J
b1000101110011101111 #
b1000101110011101111 O
b1000101110011101111 H
b111011001111111 A
b111011001111111 o
b10 ]
b10111011101100100 ^
b100110110 _
b11111111111111111111111111011100 b
b11111111111111111111111001111010 K
b11111111111111111111111001111010 \
b10000 r
b10000 u
b1101 k
b10011 m
b11111111111111111111111101110100 2
b11111111111111111111111101110100 l
1!
#575000
0!
#580000
b10000101111111 ,
b1000010111111110111101 *
b1000011 +
b1000011 `
b10000111 a
b1100 k
b10100 m
b11111111111111111111111110100110 2
b11111111111111111111111110100110 l
b10001 r
b10001 u
b1 ]
b1000001011010001 ^
b10110111 _
b11111111111111111111111101011101 b
b11111111111111111111111010101100 K
b11111111111111111111111010101100 \
b10010 J
b1000111100001101110 #
b1000111100001101110 O
b1000111100001101110 H
b1101101111111 A
b1101101111111 o
1!
#585000
0!
#590000
b10100011111111 ,
b1010001111111110101110 *
b1010010 +
b1010010 `
b10100100 a
b10011 J
b1001001100111101101 #
b1001001100111101101 O
b1001001100111101101 H
b10000101111111 A
b10000101111111 o
b1101010000010001 ^
b11101001 _
b11111111111111111111111110001111 b
b11111111111111111111111011011110 K
b11111111111111111111111011011110 \
b10010 r
b10010 u
b1011 k
b10101 m
b11111111111111111111111111011000 2
b11111111111111111111111111011000 l
1!
#595000
0!
#600000
b11000111111111 ,
b1100011111111110011100 *
b1100100 +
b1100100 `
b11001000 a
b1010 k
b10110 m
b1010 2
b1010 l
b10011 r
b10011 u
b10011100011011001 ^
b100011011 _
b11111111111111111111111111000001 b
b11111111111111111111111100010000 K
b11111111111111111111111100010000 \
b10100 J
b1001100001011101100 #
b1001100001011101100 O
b1001100001011101100 H
b10100011111111 A
b10100011111111 o
1!
#605000
0!
#610000
b11110001111111 ,
b1111000111111110000111 *
b1111001 +
b1111001 `
b11110011 a
b10101 J
b1001111010011101011 #
b1001111010011101011 O
b1001111010011101011 H
b11000111111111 A
b11000111111111 o
b11011000100101001 ^
b101001101 _
b11111111111111111111111111110011 b
b11111111111111111111111101000010 K
b11111111111111111111111101000010 \
b10100 r
b10100 u
b1001 k
b10111 m
b111100 2
b111100 l
1!
#615000
0!
#620000
b100100101111111 ,
b10010010111111101101101 *
b10010011 +
b10010011 `
b10010011 a
b1000 k
b11000 m
b1101110 2
b1101110 l
b10101 r
b10101 u
b0 ]
b1010010111000100 ^
b11001110 _
b11111111111111111111111101110100 b
b11111111111111111111111101110100 K
b11111111111111111111111101110100 \
b10110 J
b1010011000101101010 #
b1010011000101101010 O
b1010011000101101010 H
b11110001111111 A
b11110001111111 o
1!
#625000
0!
#630000
b101100111111111 ,
b10110011111111101001100 *
b10110100 +
b10110100 `
b10110100 a
b10111 J
b1010111101011101001 #
b1010111101011101001 O
b1010111101011101001 H
b100100101111111 A
b100100101111111 o
b10000000000000000 ^
b100000000 _
b11111111111111111111111110100110 b
b11111111111111111111111110100110 K
b11111111111111111111111110100110 \
b10110 r
b10110 u
b111 k
b11001 m
b10100000 2
b10100000 l
1!
#635000
0!
#640000
b110110101111111 ,
b11011010111111100100101 *
b11011011 +
b11011011 `
b11011011 a
b110 k
b11010 m
b11111111111111111111111101010110 2
b11111111111111111111111101010110 l
b10111 r
b10111 u
b10110110111000100 ^
b100110010 _
b11111111111111111111111111011000 b
b11111111111111111111111111011000 K
b11111111111111111111111111011000 \
b11000 J
b1011101010011101000 #
b1011101010011101000 O
b1011101010011101000 H
b101100111111111 A
b101100111111111 o
1!
#645000
0!
#650000
b1110111111111 ,
b111011111111111000100 *
b111100 +
b111100 `
b11110000 a
b11001 J
b1100100001001100111 #
b1100100001001100111 O
b1100100001001100111 H
b110110101111111 A
b110110101111111 o
b10 ]
b11010100101100100 ^
b101001010 _
b11111111111111111111111111110000 b
b11111111111111111111111010001110 K
b11111111111111111111111010001110 \
b11000 r
b11000 u
b101 k
b11011 m
b11111111111111111111111110010010 2
b11111111111111111111111110010010 l
1!
#655000
0!
#660000
b10010101111111 ,
b1001010111111110110101 *
b1001011 +
b1001011 `
b10010111 a
b100 k
b11100 m
b11111111111111111111111111000100 2
b11111111111111111111111111000100 l
b11001 r
b11001 u
b1 ]
b1011000100111001 ^
b11010101 _
b11111111111111111111111101111011 b
b11111111111111111111111011001010 K
b11111111111111111111111011001010 \
b11010 J
b1100110000001100110 #
b1100110000001100110 O
b1100110000001100110 H
b1110111111111 A
b1110111111111 o
1!
#665000
0!
#670000
b10110111111111 ,
b1011011111111110100100 *
b1011100 +
b1011100 `
b10111001 a
b11011 J
b1101000010111100101 #
b1101000010111100101 O
b1101000010111100101 H
b10010101111111 A
b10010101111111 o
b10000111000110001 ^
b100000111 _
b11111111111111111111111110101101 b
b11111111111111111111111011111100 K
b11111111111111111111111011111100 \
b11010 r
b11010 u
b11 k
b11101 m
b11111111111111111111111111110110 2
b11111111111111111111111111110110 l
1!
#675000
0!
#680000
b11011111111111 ,
b1101111111111110010000 *
b1110000 +
b1110000 `
b11100001 a
b10 k
b11110 m
b101000 2
b101000 l
b11011 r
b11011 u
b10111111010110001 ^
b100111001 _
b11111111111111111111111111011111 b
b11111111111111111111111100101110 K
b11111111111111111111111100101110 \
b11100 J
b1101011001111100100 #
b1101011001111100100 O
b1101011001111100100 H
b10110111111111 A
b10110111111111 o
1!
#685000
0!
#690000
b100001111111111 ,
b10000111111111101111000 *
b10001000 +
b10001000 `
b10001000 a
b11101 J
b1101110101111100011 #
b1101110101111100011 O
b1101110101111100011 H
b11011111111111 A
b11011111111111 o
b0 ]
b1000011100100100 ^
b10111010 _
b11111111111111111111111101100000 b
b11111111111111111111111101100000 K
b11111111111111111111111101100000 \
b11100 r
b11100 u
b1 k
b11111 m
b1011010 2
b1011010 l
1!
#695000
0!
#700000
b101001011111111 ,
b10100101111111101011010 *
b10100110 +
b10100110 `
b10100110 a
11
b0 k
b0 m
b10001100 2
b10001100 l
b11101 r
b11101 u
b1101100110010000 ^
b11101100 _
b11111111111111111111111110010010 b
b11111111111111111111111110010010 K
b11111111111111111111111110010010 \
b11110 J
b1110010111111100010 #
b1110010111111100010 O
b1110010111111100010 H
b100001111111111 A
b100001111111111 o
1!
#705000
0!
#710000
b110010011111111 ,
b11001001111111100110110 *
b11001010 +
b11001010 `
b11001010 a
b11111 J
b1111000001011100001 #
b1111000001011100001 O
b1111000001011100001 H
b101001011111111 A
b101001011111111 o
b10011111110000100 ^
b100011110 _
b11111111111111111111111111000100 b
b11111111111111111111111111000100 K
b11111111111111111111111111000100 \
0?
b11110 r
b11110 u
1!
#715000
0!
#720000
b1 W
b100000 T
b1000000000000000000000000000000 U
13
b11111 r
b11111 u
1I
b0 J
b1111110011111100000 #
b1111110011111100000 O
b1111110011111100000 H
0=
b110010011111111 A
b110010011111111 o
1!
#725000
0!
#730000
b1000000000000000000000000000000 )
b1000000000000000000000000000000 Q
b11111 T
b111111111111110000001100000100000 [
b10000000000000000000000000000000 U
b100000 S
b1000000000000000000000000000000 X
b1 Z
1-
b100000 r
b0 u
1!
#735000
0!
#740000
b11110 T
b111111111111110000001100000100001 [
b100000000000000000000000000000000 U
b1 V
b10000000000000000000000000000000 )
b10000000000000000000000000000000 Q
b11111 S
b10000000000000000000000000000000 X
1!
#745000
0!
#750000
b1 (
b1 P
b11101 T
b111111111111110000001100000100010 [
b0 U
b10 V
b0 )
b0 Q
b11110 S
b1 Y
b100000000000000000000000000000000 X
1!
#755000
0!
#760000
b10 (
b10 P
b11100 T
b111111111111110000001100000100100 [
b100 V
b11101 S
b10 Y
b0 X
1!
#765000
0!
#770000
b11011 T
b111111111111110000001100000101000 [
b1000 V
b100 (
b100 P
b11100 S
b100 Y
1!
#775000
0!
#780000
b11010 T
b111111111111110000001100000110000 [
b10000 V
b1000 (
b1000 P
b11011 S
b1000 Y
1!
#785000
0!
#790000
b11001 T
b111111111111110000001100001000000 [
b100000 V
b10000 (
b10000 P
b11010 S
b10000 Y
1!
#795000
0!
#800000
b11000 T
b111111111111110000001100001100000 [
b1000000 V
b100000 (
b100000 P
b11001 S
b100000 Y
1!
#805000
0!
#810000
b10111 T
b111111111111110000001100010100000 [
b10000000 V
b1000000 (
b1000000 P
b11000 S
b1000000 Y
1!
#815000
0!
#820000
b10110 T
b111111111111110000001100100100000 [
b100000000 V
b10000000 (
b10000000 P
b10111 S
b10000000 Y
1!
#825000
0!
#830000
b10101 T
b111111111111110000001101000100000 [
b1000000000 V
b100000000 (
b100000000 P
b10110 S
b100000000 Y
1!
#835000
0!
#840000
b10100 T
b111111111111110000001110000100000 [
b10000000000 V
b1000000000 (
b1000000000 P
b10101 S
b1000000000 Y
1!
#845000
0!
#850000
b10011 T
b111111111111110000010000000100000 [
b100000000000 V
b10000000000 (
b10000000000 P
b10100 S
b10000000000 Y
1!
#855000
0!
#860000
b10010 T
b111111111111110000010100000100000 [
b1000000000000 V
b100000000000 (
b100000000000 P
b10011 S
b100000000000 Y
1!
#865000
0!
#870000
b10001 T
b111111111111110000011100000100000 [
b10000000000000 V
b1000000000000 (
b1000000000000 P
b10010 S
b1000000000000 Y
1!
#875000
0!
#880000
b10000 T
b111111111111110000101100000100000 [
b100000000000000 V
b10000000000000 (
b10000000000000 P
b10001 S
b10000000000000 Y
1!
#885000
0!
#890000
b1111 T
b111111111111110001001100000100000 [
b1000000000000000 V
b100000000000000 (
b100000000000000 P
b10000 S
b100000000000000 Y
1!
#895000
0!
#900000
b1110 T
b111111111111110010001100000100000 [
b10000000000000000 V
b1000000000000000 (
b1000000000000000 P
b1111 S
b1000000000000000 Y
1!
#905000
0!
#910000
b1101 T
b111111111111110100001100000100000 [
b100000000000000000 V
b10000000000000000 (
b10000000000000000 P
b1110 S
b10000000000000000 Y
1!
#915000
0!
#920000
b1100 T
b111111111111111000001100000100000 [
b1000000000000000000 V
b100000000000000000 (
b100000000000000000 P
b1101 S
b100000000000000000 Y
1!
#925000
0!
#930000
b1011 T
b1 U
b1100000100000 [
b1100000100000 V
b1000000000000000000 (
b1000000000000000000 P
b1100 S
b1000000000000000000 Y
1!
#935000
0!
#940000
b1100000100000 (
b1100000100000 P
b1010 T
b111111111111110000100100001100000 [
b10 U
b11000001000000 V
b1 )
b1 Q
b1011 S
b1100000100000 Y
b1 X
1!
#945000
0!
#950000
b11000001000000 (
b11000001000000 P
b1001 T
b111111111111110000111100010100000 [
b100 U
b110000010000000 V
b10 )
b10 Q
b1010 S
b11000001000000 Y
b10 X
1!
#955000
0!
#960000
b110000010000000 (
b110000010000000 P
b1000 T
b111111111111110001101100100100000 [
b1000 U
b1100000100000000 V
b100 )
b100 Q
b1001 S
b110000010000000 Y
b100 X
1!
#965000
0!
#970000
b1100000100000000 (
b1100000100000000 P
b111 T
b111111111111110011001101000100000 [
b10000 U
b11000001000000000 V
b1000 )
b1000 Q
b1000 S
b1100000100000000 Y
b1000 X
1!
#975000
0!
#980000
b11000001000000000 (
b11000001000000000 P
b110 T
b111111111111110110001110000100000 [
b100000 U
b110000010000000000 V
b10000 )
b10000 Q
b111 S
b11000001000000000 Y
b10000 X
1!
#985000
0!
#990000
b110000010000000000 (
b110000010000000000 P
b101 T
b111111111111111100010000000100000 [
b1000000 U
b1100000100000000000 V
b100000 )
b100000 Q
b110 S
b110000010000000000 Y
b100000 X
1!
#995000
0!
#1000000
b1100000100000000000 (
b1100000100000000000 P
b100 T
b1000010100000100000 [
b10000001 U
b1000010100000100000 V
b1000000 )
b1000000 Q
b101 S
b1100000100000000000 Y
b1000000 X
1!
#1005000
0!
#1010000
b1000010100000100000 (
b1000010100000100000 P
b11 T
b110100001100000 [
b100000011 U
b110100001100000 V
b10000001 )
b10000001 Q
b100 S
b1000010100000100000 Y
b10000001 X
1!
#1015000
0!
#1020000
b110100001100000 (
b110100001100000 P
b10 T
b111111111111110001110100011100000 [
b1000000110 U
b1101000011000000 V
b100000011 )
b100000011 Q
b11 S
b110100001100000 Y
b100000011 X
1!
#1025000
0!
#1030000
b1101000011000000 (
b1101000011000000 P
b1 T
b111111111111110011011100110100000 [
b10000001100 U
b11010000110000000 V
b1000000110 )
b1000000110 Q
b10 S
b1101000011000000 Y
b1000000110 X
1!
#1035000
0!
#1040000
b11010000110000000 (
b11010000110000000 P
b10 W
b0 T
b111111111111110110101101100100000 [
b100000011000 U
b110100001100000000 V
b10000001100 )
b10000001100 Q
b1 S
b11010000110000000 Y
b10000001100 X
1!
#1045000
0!
#1050000
b110100001100000000 (
b110100001100000000 P
b100000011000 )
b100000011000 Q
14
b0 S
b110100001100000000 Y
b100000011000 X
b10 Z
1!
#1055000
0!
#1060000
1B
1!
#1065000
0!
#1070000
0-
b11111 r
b1 t
b1101001111111 /
b1101001111111 s
1!
#1075000
0!
#1080000
b10 t
b10000001111111 /
b10000001111111 s
b1 u
1G
b11 M
1!
#1085000
0!
#1090000
b100 M
b11 t
b10011011111111 /
b10011011111111 s
b10 u
1!
