divider.vcd
$date
	Mon Mar 31 22:19:48 2025
$end
$version
	Icarus Verilog
$end
$timescale
	1ns
$end
$scope module divider $end
$var wire 1 ! clk $end
$var wire 16 " dividend [15:0] $end
$var wire 16 # divisor [15:0] $end
$var wire 1 $ rst_n $end
$var wire 1 % start $end
$var wire 16 & remainder [15:0] $end
$var wire 16 ' quotient [15:0] $end
$var parameter 32 ( DATA_WIDTH $end
$var reg 5 ) count [4:0] $end
$var reg 1 * done $end
$var reg 5 + next_count [4:0] $end
$var reg 17 , next_quo [16:0] $end
$var reg 17 - next_rem [16:0] $end
$var reg 2 . next_state [1:0] $end
$var reg 17 / quo_reg [16:0] $end
$var reg 17 0 rem_reg [16:0] $end
$var reg 2 1 state [1:0] $end
$var reg 17 2 sub_result [16:0] $end
$upscope $end
$enddefinitions $end
$comment Show the parameter values. $end
$dumpall
b10000 (
$end
#0
$dumpvars
bx 2
bx 1
bx 0
bx /
bx .
bx -
bx ,
bx +
0*
bx )
bx '
bx &
z%
z$
bz #
bz "
1!
$end
#5
0!
#10
b0 &
b0 '
b0 +
b0 -
b0 ,
b0 .
b0 )
b0 0
b0 /
b0 1
1!
b0 #
b0 "
0%
0$
#15
0!
#20
1!
1$
#25
0!
#30
b1011 '
b11111111111111101 2
b10000 )
b1011 /
b1 1
b1 .
b1111 +
b10110 ,
1!
1%
b11 #
b1011 "
#35
0!
#40
b10110 '
b1111 )
b10110 /
b1110 +
b101100 ,
1!
0%
#45
0!
#50
b1101 +
b1011000 ,
b101100 '
b1110 )
b101100 /
1!
#55
0!
#60
b1100 +
b10110000 ,
b1011000 '
b1101 )
b1011000 /
1!
#65
0!
#70
b1011 +
b101100000 ,
b10110000 '
b1100 )
b10110000 /
1!
#75
0!
#80
b1010 +
b1011000000 ,
b101100000 '
b1011 )
b101100000 /
1!
#85
0!
#90
b1001 +
b10110000000 ,
b1011000000 '
b1010 )
b1011000000 /
1!
#95
0!
#100
b1000 +
b101100000000 ,
b10110000000 '
b1001 )
b10110000000 /
1!
#105
0!
#110
b111 +
b1011000000000 ,
b101100000000 '
b1000 )
b101100000000 /
1!
#115
0!
#120
b110 +
b10110000000000 ,
b1011000000000 '
b111 )
b1011000000000 /
1!
#125
0!
#130
b101 +
b101100000000000 ,
b10110000000000 '
b110 )
b10110000000000 /
1!
#135
0!
#140
b100 +
b1011000000000000 ,
b101100000000000 '
b101 )
b101100000000000 /
1!
#145
0!
#150
b11 +
b11111111111111110 2
b10110000000000000 ,
b1 -
b1011000000000000 '
b100 )
b1011000000000000 /
1!
#155
0!
#160
b1 &
b10 +
b11111111111111111 2
b1100000000000000 ,
b10 -
b110000000000000 '
b11 )
b1 0
b10110000000000000 /
1!
#165
0!
#170
b10 &
b1 +
b10 2
b11000000000000001 ,
b10 -
b1100000000000000 '
b10 )
b10 0
b1100000000000000 /
1!
#175
0!
#180
b10 .
b0 +
b10000000000000011 ,
b10 -
b1000000000000001 '
b1 )
b11000000000000001 /
1!
#185
0!
#190
b11 '
1*
b0 )
b10000000000000011 /
b10 1
1!
